<svg xmlns="http://www.w3.org/2000/svg" width="34.423" height="30.353" viewBox="0 0 34.423 30.353">
  <path id="observaciones" d="M16.2,2.25C7.253,2.25,0,8.142,0,15.414a11.684,11.684,0,0,0,3.607,8.272A16.1,16.1,0,0,1,.139,29.749a.5.5,0,0,0-.095.551.5.5,0,0,0,.462.3A14.474,14.474,0,0,0,9.4,27.35a19.3,19.3,0,0,0,6.8,1.228c8.949,0,16.2-5.892,16.2-13.164S25.151,2.25,16.2,2.25ZM8.1,17.439a2.025,2.025,0,1,1,2.025-2.025A2.023,2.023,0,0,1,8.1,17.439Zm8.1,0a2.025,2.025,0,1,1,2.025-2.025A2.023,2.023,0,0,1,16.2,17.439Zm8.1,0a2.025,2.025,0,1,1,2.025-2.025A2.023,2.023,0,0,1,24.3,17.439Z" transform="translate(1.019 -1.25)" fill="none" stroke="#fff" stroke-width="2"/>
</svg>
