<svg xmlns="http://www.w3.org/2000/svg" width="27" height="30" viewBox="0 0 27 30">
  <g id="personales" transform="translate(-4.5 -3)">
    <path id="Trazado_4" data-name="Trazado 4" d="M30,31.5v-3a6,6,0,0,0-6-6H12a6,6,0,0,0-6,6v3" fill="none" stroke="#fff" stroke-linecap="round" stroke-linejoin="round" stroke-width="3"/>
    <path id="Trazado_5" data-name="Trazado 5" d="M24,10.5a6,6,0,1,1-6-6A6,6,0,0,1,24,10.5Z" fill="none" stroke="#fff" stroke-linecap="round" stroke-linejoin="round" stroke-width="3"/>
  </g>
</svg>
